Analyzing Coffee Yields – Sam’s Blog
…
      Published

        October 19, 2025

library(tidyverse)
library(lme4)
library(rstanarm)
options(mc.cores = 4)

This post demonstrates working with generalized linear mixed models in the context of coffee bean yield data. Each row in the following dataset is an observation of coffee bean yield from a single farm over the past year. Note that this dataset comes from cluster sampling. First, a random sample of supply units were chosen. Then, within each supply unit, a random sample of farms in the same cluster is taken. The number of farms sampled from each sampling unit is proportional to the size of the sampling unit, making sample means unbiased estimates of population means.

data <- read_csv("coffee.csv")
data |> select(ipm_methods, region, supply_unit, obs_shade)

# A tibble: 1,168 × 4
   ipm_methods                                      region supply_unit obs_shade
   <chr>                                            <chr>  <chr>       <chr>    
 1 replanting maintain_field_hygiene biological_co… sabana sabana_nor… light_sh…
 2 replanting maintain_field_hygiene biological_co… sabana sabana_nor… light_sh…
 3 maintain_field_hygiene                           sabana sabana_nor… medium_s…
 4 replanting maintain_field_hygiene                sabana sabana_nor… medium_s…
 5 maintain_field_hygiene                           sabana sabana_nor… medium_s…
 6 maintain_field_hygiene                           sabana sabana_nor… light_sh…
 7 maintain_field_hygiene                           sabana sabana_nor… medium_s…
 8 maintain_field_hygiene                           sabana sabana_nor… medium_s…
 9 replanting maintain_field_hygiene                sabana sabana_nor… medium_s…
10 maintain_field_hygiene                           sabana sabana_nor… minimal_…
# ℹ 1,158 more rows
…
