Classifying Ships with Gaussian Process Mixtures – Sam’s Blog
…
    df, groupby(df, [:imo, :ata])
end

load_ship_data (generic function with 1 method)

df, groups = load_ship_data()

(94944×7 DataFrame
   Row │ updated              ata                  long       lat       imo    ⋯
       │ DateTime             DateTime             Float64    Float64   Int64  ⋯
───────┼────────────────────────────────────────────────────────────────────────
     1 │ 2018-05-04T19:26:00  2018-04-05T21:26:00  -0.545055  -1.52547  936472 ⋯
     2 │ 2018-05-04T19:29:00  2018-04-05T21:24:00  -0.615397  -1.47017  936472
     3 │ 2018-05-04T19:33:00  2018-04-05T21:28:00  -0.806885  -1.34498  936472
     4 │ 2018-05-04T19:36:00  2018-04-05T21:26:00  -0.918912  -1.28835  936472
     5 │ 2018-05-04T19:37:00  2018-04-05T21:31:00  -0.974925  -1.25871  936472 ⋯
     6 │ 2018-05-04T19:39:00  2018-04-05T21:30:00  -1.09086   -1.20032  936472
     7 │ 2018-05-04T19:39:00  2018-04-05T21:26:00  -1.10128   -1.19501  936472
     8 │ 2018-05-04T19:41:00  2018-04-05T21:26:00  -1.22112   -1.13661  936472
   ⋮   │          ⋮                    ⋮               ⋮         ⋮         ⋮   ⋱
 94938 │ 2019-12-03T20:06:00  2019-03-12T20:35:00   1.06891    1.07842  936472 ⋯
 94939 │ 2019-12-03T20:07:00  2019-03-12T20:29:00   1.03374    1.1054   936472
 94940 │ 2019-12-03T20:12:00  2019-03-12T20:28:00   1.05458    1.24564  936472
 94941 │ 2019-12-03T20:14:00  2019-03-12T20:26:00   1.09106    1.29386  936472
 94942 │ 2019-12-03T20:16:00  2019-03-12T20:26:00   1.14447    1.33854  936472 ⋯
 94943 │ 2019-12-03T20:19:00  2019-03-12T20:24:00   1.1627     1.3965   936472
 94944 │ 2019-12-03T20:23:00  2019-03-12T20:22:00   1.15358    1.48011  936472
                                                3 columns and 94929 rows omitted, GroupedDataFrame with 18432 groups based on keys: imo, ata
…
